{"response": {"status": "ok", "userTier": "developer", "total": 235, "startIndex": 1, "pageSize": 10, "currentPage": 1, "pages": 24, "orderBy": "newest", "results": [{"id": "business/live/2020/mar/09/markets-plunge-crash-financial-crisis-coronavirus-ftse-italy-oil-price-dow-business-live", "type": "liveblog", "sectionId": "business", "sectionName": "Business", "webPublicationDate": "2020-03-09T08:05:46Z", "webTitle": "Markets face worst day since financial crisis as oil plunges and shares crash \u2013 business live", "webUrl": "https://www.theguardian.com/business/live/2020/mar/09/markets-plunge-crash-financial-crisis-coronavirus-ftse-italy-oil-price-dow-business-live", "apiUrl": "https://content.guardianapis.com/business/live/2020/mar/09/markets-plunge-crash-financial-crisis-coronavirus-ftse-italy-oil-price-dow-business-live", "fields": {"headline": "Markets face worst day since financial crisis as oil plunges and shares crash \u2013 business live", "standfirst": "<p>Rolling coverage of the latest economic and financial news, as stocks slump across the world amid the deepening coronavirus crisis</p>", "byline": "Graeme Wearden", "thumbnail": "https://media.guim.co.uk/976fab76d12ce6b128cc683879e047decefb485e/0_281_4000_2399/500.jpg"}, "isHosted": false, "pillarId": "pillar/news", "pillarName": "News"}, {"id": "world/live/2020/mar/09/coronavirus-live-updates-outbreak-italy-lockdown-quarantine-uk-usa-america-australia-recession-fears-update-latest-news", "type": "liveblog", "sectionId": "world", "sectionName": "World news", "webPublicationDate": "2020-03-09T08:03:04Z", "webTitle": "Coronavirus live updates: stock markets plunge as infections pass 110,000", "webUrl": "https://www.theguardian.com/world/live/2020/mar/09/coronavirus-live-updates-outbreak-italy-lockdown-quarantine-uk-usa-america-australia-recession-fears-update-latest-news", "apiUrl": "https://content.guardianapis.com/world/live/2020/mar/09/coronavirus-live-updates-outbreak-italy-lockdown-quarantine-uk-usa-america-australia-recession-fears-update-latest-news", "fields": {"headline": "Coronavirus live updates: stock markets plunge as infections pass 110,000", "standfirst": "<p>With cases spiking sharply across Europe and emergency measures in place from California to Saudi Arabia, investors have sent shares tumbling<br></p><ul><li><a href=\"https://www.theguardian.com/world/2020/mar/08/leaked-coronavirus-plan-to-quarantine-16m-sparks-chaos-in-italy\">Leaked coronavirus plan to quarantine 16m sparks chaos in Italy</a></li><li><a href=\"https://www.theguardian.com/world/2020/mar/09/the-new-normal-chinas-excessive-coronavirus-public-monitoring-could-be-here-to-stay\">China\u2019s excessive coronavirus public monitoring could be here to stay</a></li><li><a href=\"https://www.theguardian.com/world/2020/mar/08/coronavirus-symptoms-what-are-they-and-should-i-see-a-doctor\">Coronavirus symptoms: what are they and should I see a doctor?</a></li></ul>", "byline": "Frances Perraudin (now) and Helen Sullivan (earlier)", "thumbnail": "https://media.guim.co.uk/58983c623c255fe7dba679dc385e61e347d54485/0_349_6144_3686/500.jpg"}, "isHosted": false, "pillarId": "pillar/news", "pillarName": "News"}, {"id": "world/2020/mar/09/what-is-the-european-green-deal-and-will-it-really-cost-1tn", "type": "article", "sectionId": "world", "sectionName": "World news", "webPublicationDate": "2020-03-09T08:00:00Z", "webTitle": "What is the European Green Deal\u00a0and will it really cost \u20ac1tn?", "webUrl": "https://www.theguardian.com/world/2020/mar/09/what-is-the-european-green-deal-and-will-it-really-cost-1tn", "apiUrl": "https://content.guardianapis.com/world/2020/mar/09/what-is-the-european-green-deal-and-will-it-really-cost-1tn", "fields": {"headline": "What is the European Green Deal\u00a0and will it really cost \u20ac1tn?", "standfirst": "<p>How the EU\u2019s ambitious bid to lead the world on climate action will work and whether it will really make a difference</p>", "byline": "Fiona Harvey and Jennifer Rankin in Brussels", "thumbnail": "https://media.guim.co.uk/c4fb31cde5280c1e55f18841aa4add80b0ea4a5c/0_0_2560_1536/500.jpg"}, "isHosted": false, "pillarId": "pillar/news", "pillarName": "News"}, {"id": "commentisfree/2020/mar/09/eradicate-fgm-misunderstanding-history", "type": "article", "sectionId": "commentisfree", "sectionName": "Opinion", "webPublicationDate": "2020-03-09T08:00:00Z", "webTitle": "We won\u2019t eradicate FGM if we keep misunderstanding its history | Sada Mire", "webUrl": "https://www.theguardian.com/commentisfree/2020/mar/09/eradicate-fgm-misunderstanding-history", "apiUrl": "https://content.guardianapis.com/commentisfree/2020/mar/09/eradicate-fgm-misunderstanding-history", "fields": {"headline": "We won\u2019t eradicate FGM if we keep misunderstanding its history", "standfirst": "Despite a century of campaigning the practice persists. But in my work as an archaeologist, I\u2019ve learned how we can end it", "byline": "Sada Mire", "thumbnail": "https://media.guim.co.uk/85fd2974ef614418a5b8a832e88411bd61c0313d/0_193_3486_2092/500.jpg"}, "isHosted": false, "pillarId": "pillar/opinion", "pillarName": "Opinion"}, {"id": "world/2020/mar/09/lack-paid-sick-leave-will-leave-millions-us-workers-vulnerable-coronavirus", "type": "article", "sectionId": "world", "sectionName": "World news", "webPublicationDate": "2020-03-09T07:30:02Z", "webTitle": "Lack of paid leave will leave millions of US workers vulnerable to coronavirus", "webUrl": "https://www.theguardian.com/world/2020/mar/09/lack-paid-sick-leave-will-leave-millions-us-workers-vulnerable-coronavirus", "apiUrl": "https://content.guardianapis.com/world/2020/mar/09/lack-paid-sick-leave-will-leave-millions-us-workers-vulnerable-coronavirus", "fields": {"headline": "Lack of paid leave will leave millions of US workers vulnerable to coronavirus", "standfirst": "<p>Low-wage workers in service industries without proper medical benefits and sick leave will risk getting sick or spreading the virus</p>", "byline": "Michael Sainato", "thumbnail": "https://media.guim.co.uk/0b9d66efc2e70e4f2e640e6f5d89838ee0f32e8d/0_79_5257_3154/500.jpg"}, "isHosted": false, "pillarId": "pillar/news", "pillarName": "News"}, {"id": "science/2020/mar/09/can-you-solve-it-are-you-a-master-of-reflection", "type": "article", "sectionId": "science", "sectionName": "Science", "webPublicationDate": "2020-03-09T07:10:02Z", "webTitle": "Can you solve it? Are you a master of reflection?", "webUrl": "https://www.theguardian.com/science/2020/mar/09/can-you-solve-it-are-you-a-master-of-reflection", "apiUrl": "https://content.guardianapis.com/science/2020/mar/09/can-you-solve-it-are-you-a-master-of-reflection", "fields": {"headline": "Can you solve it? Are you a master of reflection?", "standfirst": "<p>A colourful puzzle for squares</p>", "byline": "Alex Bellos", "thumbnail": "https://media.guim.co.uk/1e74d19212652edf6b8ad8226edfa9ea71dca17f/0_46_1272_763/500.jpg"}, "isHosted": false, "pillarId": "pillar/news", "pillarName": "News"}, {"id": "australia-news/2020/mar/09/mining-giant-given-millions-in-grant-by-coalition-from-fund-for-indigenous-disadvantage", "type": "article", "sectionId": "australia-news", "sectionName": "Australia news", "webPublicationDate": "2020-03-09T07:09:25Z", "webTitle": "Mining giant given millions in grant by Coalition from fund for Indigenous disadvantage", "webUrl": "https://www.theguardian.com/australia-news/2020/mar/09/mining-giant-given-millions-in-grant-by-coalition-from-fund-for-indigenous-disadvantage", "apiUrl": "https://content.guardianapis.com/australia-news/2020/mar/09/mining-giant-given-millions-in-grant-by-coalition-from-fund-for-indigenous-disadvantage", "fields": {"headline": "Mining giant given millions in grant by Coalition from fund for Indigenous disadvantage", "standfirst": "<p>Fortescue Metals, Wesfarmers and the Brisbane Broncos NRL team received grants approved by Nigel Scullion</p>", "byline": "Lorena Allam", "thumbnail": "https://media.guim.co.uk/0c234bb3901a74a5023fdbe5f20909a433a074fb/712_510_4141_2485/500.jpg"}, "isHosted": false, "pillarId": "pillar/news", "pillarName": "News"}, {"id": "politics/live/2020/mar/08/international-womens-day", "type": "liveblog", "sectionId": "politics", "sectionName": "Politics", "webPublicationDate": "2020-03-09T07:03:25Z", "webTitle": "International Women's Day: events highlighting gender inequality take place around the world - as it happened", "webUrl": "https://www.theguardian.com/politics/live/2020/mar/08/international-womens-day", "apiUrl": "https://content.guardianapis.com/politics/live/2020/mar/08/international-womens-day", "fields": {"headline": "International Women's Day: events highlighting gender inequality take place around the world - as it happened", "standfirst": "<p>Women demanded to be heard as demonstrations were seen in over a dozen countries, from Pakistan to Argentina</p>", "byline": "Lauren Aratani (now) Molly Blackall (earlier)", "thumbnail": "https://media.guim.co.uk/c2101530d24b54c6e4244d916e573dd2ad9b7f76/0_107_3649_2190/500.jpg"}, "isHosted": false, "pillarId": "pillar/news", "pillarName": "News"}, {"id": "books/2020/mar/09/recollections-of-my-non-existence-rebecca-solnit-review", "type": "article", "sectionId": "books", "sectionName": "Books", "webPublicationDate": "2020-03-09T07:00:03Z", "webTitle": "Recollections of My Non-Existence by Rebecca Solnit review \u2013 figuring out what stories to tell", "webUrl": "https://www.theguardian.com/books/2020/mar/09/recollections-of-my-non-existence-rebecca-solnit-review", "apiUrl": "https://content.guardianapis.com/books/2020/mar/09/recollections-of-my-non-existence-rebecca-solnit-review", "fields": {"headline": "Recollections of My Non-Existence by Rebecca Solnit review \u2013 figuring out what stories to tell", "standfirst": "The influential American writer\u2019s memoir is less about soul-baring than the story of men\u2019s attempts to silence women", "byline": "Stephanie Merritt", "thumbnail": "https://media.guim.co.uk/ab709d6f1158394d9691b8b766d8ad0d53d5477b/0_769_1890_1134/500.jpg"}, "isHosted": false, "pillarId": "pillar/arts", "pillarName": "Arts"}, {"id": "money/2020/mar/09/my-partner-is-moving-in-and-were-planning-to-share-our-mortgage", "type": "article", "sectionId": "money", "sectionName": "Money", "webPublicationDate": "2020-03-09T07:00:03Z", "webTitle": "My partner is moving in and we're planning to share our mortgage", "webUrl": "https://www.theguardian.com/money/2020/mar/09/my-partner-is-moving-in-and-were-planning-to-share-our-mortgage", "apiUrl": "https://content.guardianapis.com/money/2020/mar/09/my-partner-is-moving-in-and-were-planning-to-share-our-mortgage", "fields": {"headline": "My partner is moving in and we're planning to share our mortgage", "standfirst": "<p>I\u2019m also wondering how to make sure my children are going to be OK if I should die</p>", "byline": "Virginia Wallis", "thumbnail": "https://media.guim.co.uk/28f74e9fe209a2f45b562ed03b9d06ec402e9924/0_105_2212_1327/500.jpg"}, "isHosted": false, "pillarId": "pillar/lifestyle", "pillarName": "Lifestyle"}]}, "timestamp": "2020-03-09T08:07:56.266000"}